dump.vcd
$date
	Wed Jul  2 22:35:38 2025
$end

$version
	Synopsys VCS version U-2023.03-SP2_Full64
$end

$timescale
	1ns
$end

$comment Csum: 1 893fa5f95c720787 $end


$scope module top_tb $end
$var reg 1 ! clk_global $end
$var reg 1 " rst_global $end
$var reg 32 # error [31:0] $end
$var reg 32 $ finish [31:0] $end

$scope task end_sim_checker $end
$upscope $end


$scope fork unnamed$$_vcs_0 $end

$scope begin unnamed$$_vcs_1 $end
$upscope $end


$scope begin unnamed$$_vcs_2 $end
$upscope $end


$scope begin unnamed$$_vcs_3 $end
$upscope $end


$scope begin unnamed$$_vcs_4 $end
$upscope $end


$scope begin unnamed$$_vcs_5 $end
$upscope $end

$upscope $end


$scope module dut $end
$var reg 1 ! clk $end
$var reg 1 " rst $end
$var wire 32 % mux_pc [31:0] $end
$var wire 32 & pc_out [31:0] $end
$var wire 32 ' pc_4 [31:0] $end
$var wire 32 ( instruction [31:0] $end
$var wire 32 ) rs1_data [31:0] $end
$var wire 32 * rs2_data [31:0] $end
$var wire 32 + immediate [31:0] $end
$var wire 32 , alu_mux [31:0] $end
$var wire 32 - wb_mux_out [31:0] $end
$var wire 32 . pc_imm [31:0] $end
$var wire 2 / if_mux_sel [1:0] $end
$var wire 1 0 ex_mux_sel $end
$var wire 2 1 wb_mux_sel [1:0] $end
$var wire 32 2 alu_out [31:0] $end
$var wire 32 3 mem_data_out [31:0] $end
$var wire 1 4 comparison $end
$var wire 1 5 reg_file_rd $end
$var wire 1 6 reg_file_wr $end
$var wire 1 7 mem_write $end
$var wire 1 8 mem_read $end
$var wire 1 9 one_byte $end
$var wire 1 : two_bytes $end
$var wire 1 ; four_bytes $end

$scope module if_mux $end
$var reg 32 ' A [31:0] $end
$var reg 32 . B [31:0] $end
$var reg 32 2 C [31:0] $end
$var reg 32 < D [31:0] $end
$var reg 2 / sel [1:0] $end
$var reg 32 % out [31:0] $end
$upscope $end


$scope module pc_register $end
$var reg 1 ! clk $end
$var reg 1 " rst $end
$var reg 32 % data_in [31:0] $end
$var reg 1 = wr $end
$var reg 32 & data_out [31:0] $end
$upscope $end


$scope module pc_4_adder $end
$var reg 32 > A [31:0] $end
$var reg 32 & B [31:0] $end
$var reg 32 ' out [31:0] $end
$upscope $end


$scope module inst_mem $end
$var reg 1 " rst $end
$var reg 32 ? data_in [31:0] $end
$var reg 8 @ addr [7:0] $end
$var reg 1 A wr $end
$var reg 1 B rd $end
$var reg 32 ( data_out [31:0] $end
$upscope $end


$scope module reg_file $end
$var reg 1 C clk $end
$var reg 1 D rst $end
$var reg 32 - write_data [31:0] $end
$var reg 5 E write_register [4:0] $end
$var reg 1 F wr $end
$var reg 5 G read_register_1 [4:0] $end
$var reg 5 H read_register_2 [4:0] $end
$var reg 1 I rd $end
$var reg 32 J read_data_1 [31:0] $end
$var reg 32 K read_data_2 [31:0] $end
$var reg 32 L reg_zero [31:0] $end

$scope begin unnamed$$_0 $end
$upscope $end

$upscope $end


$scope module imm_gen $end
$var reg 32 ( instr [31:0] $end
$var reg 32 + data_out [31:0] $end
$var reg 7 M opcode [6:0] $end
$var reg 7 N func3 [6:0] $end
$upscope $end


$scope module alu $end
$var reg 32 O data_in_1 [31:0] $end
$var reg 32 , data_in_2 [31:0] $end
$var reg 3 P func3 [2:0] $end
$var reg 7 Q func7 [6:0] $end
$var reg 7 M opcode [6:0] $end
$var reg 32 2 data_out [31:0] $end
$var reg 1 R zero $end
$var reg 1 4 comparison $end
$upscope $end


$scope module ex_mux $end
$var reg 32 S A [31:0] $end
$var reg 32 + B [31:0] $end
$var reg 1 0 sel $end
$var reg 32 , out [31:0] $end
$upscope $end


$scope module pc_imm_adder $end
$var reg 32 & A [31:0] $end
$var reg 32 + B [31:0] $end
$var reg 32 . out [31:0] $end
$upscope $end


$scope module data_mem $end
$var reg 1 ! clk $end
$var reg 1 " rst $end
$var reg 32 S data_in [31:0] $end
$var reg 8 T addr [7:0] $end
$var reg 1 7 wr $end
$var reg 1 8 rd $end
$var reg 1 9 one_byte $end
$var reg 1 : two_bytes $end
$var reg 1 ; four_bytes $end
$var reg 32 3 data_out [31:0] $end

$scope begin unnamed$$_0 $end
$upscope $end

$upscope $end


$scope module wb_mux $end
$var reg 32 2 A [31:0] $end
$var reg 32 3 B [31:0] $end
$var reg 32 ' C [31:0] $end
$var reg 32 . D [31:0] $end
$var reg 2 1 sel [1:0] $end
$var reg 32 - out [31:0] $end
$upscope $end


$scope module control_deco $end
$var reg 32 ( instr [31:0] $end
$var reg 1 4 comparison $end
$var reg 2 / if_mux_sel [1:0] $end
$var reg 1 0 ex_mux_sel $end
$var reg 2 1 wb_mux_sel [1:0] $end
$var reg 1 5 reg_file_rd $end
$var reg 1 6 reg_file_wr $end
$var reg 1 8 mem_read $end
$var reg 1 7 mem_write $end
$var reg 1 9 one_byte $end
$var reg 1 : two_bytes $end
$var reg 1 ; four_bytes $end
$var reg 7 M opcode [6:0] $end
$var reg 7 N func3 [6:0] $end
$upscope $end

$upscope $end


$scope module mux_tb $end
$var reg 32 U error [31:0] $end
$var reg 32 V finish [31:0] $end
$var reg 1 ! clk $end
$var reg 1 " rst $end
$var reg 32 W A [31:0] $end
$var reg 32 X B [31:0] $end
$var reg 1 Y sel $end
$var reg 32 Z out [31:0] $end

$scope task mux_sim $end

$scope fork unnamed$$_vcs_2 $end

$scope begin unnamed$$_vcs_0 $end
$upscope $end


$scope begin unnamed$$_vcs_1 $end
$upscope $end

$upscope $end

$upscope $end


$scope task stimulus $end
$upscope $end


$scope task selfcheck $end
$upscope $end


$scope module dut_mux $end
$var reg 32 [ A [31:0] $end
$var reg 32 X B [31:0] $end
$var reg 1 Y sel $end
$var reg 32 Z out [31:0] $end
$upscope $end

$upscope $end


$scope module adder_tb $end
$var reg 32 \ error [31:0] $end
$var reg 32 ] finish [31:0] $end
$var reg 1 ! clk $end
$var reg 1 " rst $end
$var reg 32 ^ A [31:0] $end
$var reg 32 _ B [31:0] $end
$var reg 32 ` out [31:0] $end

$scope task stimulus $end

$scope begin unnamed$$_0 $end
$upscope $end

$upscope $end


$scope task adder_sim $end

$scope fork unnamed$$_vcs_2 $end

$scope begin unnamed$$_vcs_0 $end
$upscope $end


$scope begin unnamed$$_vcs_1 $end
$upscope $end

$upscope $end

$upscope $end


$scope task selfcheck $end
$var reg 32 a sum [31:0] $end
$upscope $end


$scope module dut_adder $end
$var reg 32 ^ A [31:0] $end
$var reg 32 _ B [31:0] $end
$var reg 32 ` out [31:0] $end
$upscope $end

$upscope $end


$scope module register_tb $end
$var reg 32 b error [31:0] $end
$var reg 32 c finish [31:0] $end
$var reg 1 ! clk $end
$var reg 1 " rst $end
$var reg 32 d data_in [31:0] $end
$var reg 1 e wr $end
$var reg 32 f data_out [31:0] $end
$var reg 32 g register_checker [31:0] $end

$scope task register_sim $end

$scope fork unnamed$$_vcs_2 $end

$scope begin unnamed$$_vcs_0 $end
$upscope $end


$scope begin unnamed$$_vcs_1 $end
$upscope $end

$upscope $end

$upscope $end


$scope task stimulus $end

$scope begin unnamed$$_0 $end
$upscope $end


$scope begin unnamed$$_1 $end
$upscope $end

$upscope $end


$scope task selfcheck $end
$upscope $end


$scope module dut_register $end
$var reg 1 ! clk $end
$var reg 1 " rst $end
$var reg 32 d data_in [31:0] $end
$var reg 1 e wr $end
$var reg 32 f data_out [31:0] $end
$upscope $end

$upscope $end


$scope module reg_file_tb $end
$var reg 32 h error [31:0] $end
$var reg 32 i finish [31:0] $end
$var reg 1 ! clk $end
$var reg 1 " rst $end
$var reg 32 j write_data [31:0] $end
$var reg 5 k write_register [4:0] $end
$var reg 1 l wr $end
$var reg 5 m read_register_1 [4:0] $end
$var reg 5 n read_register_2 [4:0] $end
$var reg 1 o rd $end
$var reg 32 p read_data_1 [31:0] $end
$var reg 32 q read_data_2 [31:0] $end

$scope task reg_file_sim $end

$scope fork unnamed$$_vcs_2 $end

$scope begin unnamed$$_vcs_0 $end
$upscope $end


$scope begin unnamed$$_vcs_1 $end
$upscope $end

$upscope $end

$upscope $end


$scope task stimulus $end

$scope begin unnamed$$_0 $end
$upscope $end


$scope begin unnamed$$_1 $end
$upscope $end


$scope begin unnamed$$_2 $end
$upscope $end

$upscope $end


$scope task selfcheck $end

$scope begin unnamed$$_0 $end
$upscope $end

$upscope $end


$scope module dut_reg_file $end
$var reg 1 C clk $end
$var reg 1 D rst $end
$var reg 32 j write_data [31:0] $end
$var reg 5 r write_register [4:0] $end
$var reg 1 s wr $end
$var reg 5 t read_register_1 [4:0] $end
$var reg 5 u read_register_2 [4:0] $end
$var reg 1 v rd $end
$var reg 32 w read_data_1 [31:0] $end
$var reg 32 x read_data_2 [31:0] $end
$var reg 32 y reg_zero [31:0] $end

$scope begin unnamed$$_0 $end
$upscope $end

$upscope $end

$upscope $end

$upscope $end

$enddefinitions $end

#0
$dumpvars
x4
0!
00
0;
08
07
09
05
06
0:
0Y
0o
0l
0e
0"
xR
b00000000000000000000000000000000 ^
b00000000000000000000000000000000 _
b00000000000000000000000000000000 `
b00000000000000000000000000000000 2
bxxx P
b00 /
b00 1
bzzzzzzzzzzzzzzzzzzzzzzzzzzzzzzzz O
b00000000 T
bxxxxxxxxxxxxxxxxxxxxxxxxxxxxxxxx 3
bxxxxxxxxxxxxxxxxxxxxxxxxxxxxxxxx &
bzzzzzzzzzzzzzzzzzzzzzzzzzzzzzzzz S
bzzzzzzzzzzzzzzzzzzzzzzzzzzzzzzzz ,
b0000xxx N
bxxxxxxx Q
bxxxxxxxxxxxxxxxxxxxxxxxxxxxxxxxx %
b00000000000000000000000000000000 +
bxxxxxxxxxxxxxxxxxxxxxxxxxxxxxxxx (
b00000000000000000000000000000000 W
b00000000000000000000000000000000 X
b00000000000000000000000000000000 Z
bxxxxxxx M
bxxxxxxxxxxxxxxxxxxxxxxxxxxxxxxxx '
bxxxxxxxxxxxxxxxxxxxxxxxxxxxxxxxx .
bzzzzzzzzzzzzzzzzzzzzzzzzzzzzzzzz p
bzzzzzzzzzzzzzzzzzzzzzzzzzzzzzzzz q
b00000 m
b00000 n
bxxxxxxxxxxxxxxxxxxxxxxxxxxxxxxxx g
b00000000000000000000000000000000 d
bxxxxxxxxxxxxxxxxxxxxxxxxxxxxxxxx f
bzzzzzzzzzzzzzzzzzzzzzzzzzzzzzzzz )
bzzzzzzzzzzzzzzzzzzzzzzzzzzzzzzzz *
bxxxxxxxx @
b00000000000000000000000000000000 -
b00000000000000000000000000000000 j
b00000 k
b00000000000000000000000000000000 \
b00000000000000000000000000000000 ]
b00000000000000000000000000000000 a
b00000000000000000000000000000000 #
b00000000000000000000000000000000 $
b00000000000000000000000000000000 U
b00000000000000000000000000000000 V
b00000000000000000000000000000000 h
b00000000000000000000000000000000 i
b00000000000000000000000000000000 b
b00000000000000000000000000000000 c
bzzzzzzzzzzzzzzzzzzzzzzzzzzzzzzzz J
bzzzzzzzzzzzzzzzzzzzzzzzzzzzzzzzz K
bxxxxx G
bxxxxx H
bxxxxx E
bzzzzzzzzzzzzzzzzzzzzzzzzzzzzzzzz w
bzzzzzzzzzzzzzzzzzzzzzzzzzzzzzzzz x
b00000 t
b00000 u
b00000 r
b00000000000000000000000000000000 y
0C
0D
0F
0I
0s
0v
$end
1R
#10
1!
1C
#20
1"
1D
0!
0C
#30
1!
1C
b00000000000000000000000000000000 &
b00000000 @
b00000000000000000000000000000100 '
b00000000000000000000000000000000 .
b00000000000000000000000000000000 f
b00000000010101010000001010010011 (
b000 P
b0000000 Q
b0010011 M
b0000000 N
b00101 E
b01010 G
b00101 H
b00000000000000000000000000000100 %
04
bxxxxxxxxxxxxxxxxxxxxxxxxxxxxxxxx 2
xR
bxxxxxxxx T
b00000000000000000000000000000101 +
b00000000000000000000000000000101 .
10
15
1I
16
1F
b00000000000000000000000000000000 J
b00000000000000000000000000000000 )
b00000000000000000000000000000000 O
b00000000000000000000000000000000 K
b00000000000000000000000000000000 *
b00000000000000000000000000000000 S
bxxxxxxxxxxxxxxxxxxxxxxxxxxxxxxxx -
b00000000000000000000000000000101 ,
b00000000000000000000000000000101 2
0R
b00000101 T
b00000000000000000000000000000101 -
#40
0"
0D
0!
0C
b00000000000000000000000000000101 K
b00000000000000000000000000000101 *
b00000000000000000000000000000101 S
#50
1!
1C
b00000000000000000000000000000001 X
b00000000000000000000000000000100 j
1l
1s
b00000000000000000000000000000100 &
b00000100 @
b00000000000000000000000000001000 '
b00000000000000000000000000001001 .
b00000000010100010010010000100011 (
b010 P
b0100011 M
b0000010 N
b01000 E
b00010 G
b00000000000000000000000000001000 %
b00000000000000000000000000001000 +
b00000000000000000000000000001100 .
06
0F
17
1;
b00000000000000000000000000001000 ,
b00000000000000000000000000001000 2
b00001000 T
b00000000000000000000000000001000 -
#60
0!
0C
1e
#70
1!
1C
b00000000000000000000000000000000 g
b00000000000000000000000000001000 j
b00001 k
b00001 r
b00001 m
b00001 t
b00001 n
b00001 u
b00000000000000000000000000001000 &
b00001000 @
b00000000000000000000000000001100 '
b00000000000000000000000000010000 .
b00000000100000010010001100000011 (
b0000011 M
b00110 E
b01000 H
b00000000000000000000000000001100 %
b01 1
16
1F
18
07
b00000000000000000000000000000000 K
b00000000000000000000000000000000 *
b00000000000000000000000000000000 S
bxxxxxxxxxxxxxxxxxxxxxxxxxxxxxxxx -
b00000000000000000000000000000101 3
b00000000000000000000000000000101 -
#80
0!
0C
b00000000000000000000000000000100 d
#90
1!
1C
b00000000000000000000000000000100 g
b00000000000000000000000000001100 j
b00010 k
b00010 r
b00010 m
b00010 t
b00010 n
b00010 u
b00000000000000000000000000001100 &
b00001100 @
b00000000000000000000000000010000 '
b00000000000000000000000000010100 .
b00000000000000000000000000000100 f
b00000000000101000000010000010011 (
b000 P
b0010011 M
b0000000 N
b01000 E
b01000 G
b00001 H
b00000000000000000000000000010000 %
b00000000000000000000000000000001 +
b00000000000000000000000000001101 .
b00 1
08
0;
b00000000000000000000000000000001 ,
b00000000000000000000000000001000 -
b00000000000000000000000000000001 2
b00000001 T
b00000000000000000000000000000001 -
#100
1Y
b00000000000000000000000000000001 Z
0!
0C
b00000000000000000000000000001000 d
b00000000000000000000000000000001 J
b00000000000000000000000000000001 )
b00000000000000000000000000000001 O
b00000000000000000000000000000010 2
b00000010 T
b00000000000000000000000000000010 -
#110
1!
1C
b00000000000000000000000000001000 g
b00000000000000000000000000010000 j
b00011 k
b00011 r
b00011 m
b00011 t
b00011 n
b00011 u
b00000000000000000000000000010000 &
b00010000 @
b00000000000000000000000000010100 '
b00000000000000000000000000010001 .
b00000000000000000000000000001000 f
b00000000011000101000001110110011 (
b0110011 M
b00111 E
b00101 G
b00110 H
b00000000000000000000000000010100 %
b00000000000000000000000000000000 +
b00000000000000000000000000010000 .
00
b00000000000000000000000000000101 J
b00000000000000000000000000000101 )
b00000000000000000000000000000101 O
b00000000000000000000000000000101 K
b00000000000000000000000000000101 *
b00000000000000000000000000000101 S
b00000000000000000000000000000101 ,
b00000000000000000000000000001010 2
b00001010 T
b00000000000000000000000000001010 -
#120
0!
0C
b00000000000000000000000000001100 d
#130
1!
1C
b00000000000000000000000000001100 g
b00000000000000000000000000010100 j
b00100 k
b00100 r
b00100 m
b00100 t
b00100 n
b00100 u
b00000000000000000000000000010100 &
b00010100 @
b00000000000000000000000000011000 '
b00000000000000000000000000010100 .
b00000000000000000000000000001100 f
b00000000100101000000000001100011 (
b1100011 M
b00000 E
b01000 G
b01001 H
b00000000000000000000000000011000 %
14
b01 /
06
0F
b00000000000000000000000000000001 J
b00000000000000000000000000000001 )
b00000000000000000000000000000001 O
b00000000000000000000000000000000 K
b00000000000000000000000000000000 *
b00000000000000000000000000000000 S
b00000000000000000000000000010100 %
04
b00000000000000000000000000000000 ,
b00 /
b00000000000000000000000000011000 %
#140
b00000000000000000000000000000001 ^
b00000000000000000000000000000001 `
b00000000000000000000000000000100 _
b00000000000000000000000000000101 `
0!
0C
b00000000000000000000000000000101 a
b00000000000000000000000000010000 d
#150
1!
1C
b00000000000000000000000000010000 g
b00000000000000000000000000011000 j
b00101 k
b00101 r
b00101 m
b00101 t
b00101 n
b00101 u
b00000000000000000000000000011000 &
b00011000 @
b00000000000000000000000000011100 '
b00000000000000000000000000011000 .
b00000000000000000000000000010000 f
b11111110100111111111000001101111 (
b111 P
b1111111 Q
b1101111 M
b0000111 N
b11111 G
b00000000000000000000000000011100 %
b00000000000000000000000000000000 2
1R
b00000000 T
b11111111111111111111111111101000 +
b00000000000000000000000000000000 .
b01 /
10
b10 1
16
1F
b00000000000000000000000000000000 J
b00000000000000000000000000000000 )
b00000000000000000000000000000000 O
b00000000000000000000000000000000 %
b00000000000000000000000000011100 -
b11111111111111111111111111101000 ,
#160
0!
0C
b00000000000000000000000000010100 d
#170
1!
1C
b00000000000000000000000000010100 g
b00000000000000000000000000011100 j
b00110 k
b00110 r
b00110 m
b00110 t
b00110 n
b00110 u
b00000000000000000000000000000000 &
b00000000 @
b00000000000000000000000000000100 '
b11111111111111111111111111101000 .
b00000000000000000000000000010100 f
b00000000010101010000001010010011 (
b000 P
b0000000 Q
b0010011 M
b0000000 N
b00101 E
b01010 G
b00101 H
b11111111111111111111111111101000 %
b00000000000000000000000000000100 -
b11111111111111111111111111101000 2
0R
b11101000 T
b00000000000000000000000000000101 +
b00000000000000000000000000000101 .
b00 /
b00 1
b00000000000000000000000000000101 K
b00000000000000000000000000000101 *
b00000000000000000000000000000101 S
b00000000000000000000000000000100 %
b11111111111111111111111111101000 -
b00000000000000000000000000000101 ,
b00000000000000000000000000000101 2
b00000101 T
b00000000000000000000000000000101 -
#180
0!
0C
b00000000000000000000000000011000 d
#190
1!
1C
b00000000000000000000000000011000 g
b00000000000000000000000000100000 j
b00111 k
b00111 r
b00111 m
b00111 t
b00111 n
b00111 u
b00000000000000000000000000000100 &
b00000100 @
b00000000000000000000000000001000 '
b00000000000000000000000000001001 .
b00000000000000000000000000011000 f
b00000000010100010010010000100011 (
b010 P
b0100011 M
b0000010 N
b01000 E
b00010 G
b00000000000000000000000000001000 %
b00000000000000000000000000001000 +
b00000000000000000000000000001100 .
06
0F
17
1;
b00000000000000000000000000001000 ,
b00000000000000000000000000001000 2
b00001000 T
b00000000000000000000000000001000 -
#200
b00000000000000000000000000000000 X
b00000000000000000000000000000000 Z
0Y
b00000000000000000000000000000001 V
0!
0C
b00000000000000000000000000011100 d
#210
1!
1C
b00000000000000000000000000011100 g
b00000000000000000000000000100100 j
b01000 k
b01000 r
b01000 m
b01000 t
b01000 n
b01000 u
b00000000000000000000000000001000 &
b00001000 @
b00000000000000000000000000001100 '
b00000000000000000000000000010000 .
b00000000000000000000000000011100 f
b00000000100000010010001100000011 (
b0000011 M
b00110 E
b01000 H
b00000000000000000000000000001100 %
b01 1
16
1F
18
07
b00000000000000000000000000000001 K
b00000000000000000000000000000001 *
b00000000000000000000000000000001 S
b00000000000000000000000000000101 -
#220
0!
0C
b00000000000000000000000000100000 d
#230
1!
1C
b00000000000000000000000000100000 g
b00000000000000000000000000101000 j
b01001 k
b01001 r
b01001 m
b01001 t
b01001 n
b01001 u
b00000000000000000000000000001100 &
b00001100 @
b00000000000000000000000000010000 '
b00000000000000000000000000010100 .
b00000000000000000000000000100000 f
b00000000000101000000010000010011 (
b000 P
b0010011 M
b0000000 N
b01000 E
b01000 G
b00001 H
b00000000000000000000000000010000 %
b00000000000000000000000000000001 +
b00000000000000000000000000001101 .
b00 1
08
0;
b00000000000000000000000000000001 J
b00000000000000000000000000000001 )
b00000000000000000000000000000001 O
b00000000000000000000000000000000 K
b00000000000000000000000000000000 *
b00000000000000000000000000000000 S
b00000000000000000000000000000001 ,
b00000000000000000000000000001000 -
b00000000000000000000000000000010 2
b00000010 T
b00000000000000000000000000000010 -
#240
b00000000000000000000000000000010 ^
b00000000000000000000000000000110 `
b00000000000000000000000000001000 _
b00000000000000000000000000001010 `
0!
0C
b00000000000000000000000000001010 a
b00000000000000000000000000100100 d
b00000000000000000000000000000010 J
b00000000000000000000000000000010 )
b00000000000000000000000000000010 O
b00000000000000000000000000000011 2
b00000011 T
b00000000000000000000000000000011 -
#250
1!
1C
b00000000000000000000000000100100 g
b00000000000000000000000000101100 j
b01010 k
b01010 r
b01010 m
b01010 t
b01010 n
b01010 u
b00000000000000000000000000010000 &
b00010000 @
b00000000000000000000000000010100 '
b00000000000000000000000000010001 .
b00000000000000000000000000100100 f
b00000000011000101000001110110011 (
b0110011 M
b00111 E
b00101 G
b00110 H
b00000000000000000000000000010100 %
b00000000000000000000000000000000 +
b00000000000000000000000000010000 .
00
b00000000000000000000000000000101 J
b00000000000000000000000000000101 )
b00000000000000000000000000000101 O
b00000000000000000000000000000101 K
b00000000000000000000000000000101 *
b00000000000000000000000000000101 S
b00000000000000000000000000000101 ,
b00000000000000000000000000001010 2
b00001010 T
b00000000000000000000000000001010 -
#260
0!
0C
b00000000000000000000000000101000 d
#270
1!
1C
b00000000000000000000000000101000 g
b00000000000000000000000000110000 j
b01011 k
b01011 r
b01011 m
b01011 t
b01011 n
b01011 u
b00000000000000000000000000010100 &
b00010100 @
b00000000000000000000000000011000 '
b00000000000000000000000000010100 .
b00000000000000000000000000101000 f
b00000000100101000000000001100011 (
b1100011 M
b00000 E
b01000 G
b01001 H
b00000000000000000000000000011000 %
14
b01 /
06
0F
b00000000000000000000000000000010 J
b00000000000000000000000000000010 )
b00000000000000000000000000000010 O
b00000000000000000000000000000000 K
b00000000000000000000000000000000 *
b00000000000000000000000000000000 S
b00000000000000000000000000010100 %
04
b00000000000000000000000000000000 ,
b00 /
b00000000000000000000000000011000 %
#280
0!
0C
b00000000000000000000000000101100 d
#290
1!
1C
b00000000000000000000000000101100 g
b00000000000000000000000000110100 j
b01100 k
b01100 r
b01100 m
b01100 t
b01100 n
b01100 u
b00000000000000000000000000011000 &
b00011000 @
b00000000000000000000000000011100 '
b00000000000000000000000000011000 .
b00000000000000000000000000101100 f
b11111110100111111111000001101111 (
b111 P
b1111111 Q
b1101111 M
b0000111 N
b11111 G
b00000000000000000000000000011100 %
b00000000000000000000000000000000 2
1R
b00000000 T
b11111111111111111111111111101000 +
b00000000000000000000000000000000 .
b01 /
10
b10 1
16
1F
b00000000000000000000000000000000 J
b00000000000000000000000000000000 )
b00000000000000000000000000000000 O
b00000000000000000000000000000000 %
b00000000000000000000000000011100 -
b11111111111111111111111111101000 ,
#300
0!
0C
b00000000000000000000000000110000 d
#310
1!
1C
b00000000000000000000000000110000 g
b00000000000000000000000000111000 j
b01101 k
b01101 r
b01101 m
b01101 t
b01101 n
b01101 u
b00000000000000000000000000000000 &
b00000000 @
b00000000000000000000000000000100 '
b11111111111111111111111111101000 .
b00000000000000000000000000110000 f
b00000000010101010000001010010011 (
b000 P
b0000000 Q
b0010011 M
b0000000 N
b00101 E
b01010 G
b00101 H
b11111111111111111111111111101000 %
b00000000000000000000000000000100 -
b11111111111111111111111111101000 2
0R
b11101000 T
b00000000000000000000000000000101 +
b00000000000000000000000000000101 .
b00 /
b00 1
b00000000000000000000000000000101 K
b00000000000000000000000000000101 *
b00000000000000000000000000000101 S
b00000000000000000000000000000100 %
b11111111111111111111111111101000 -
b00000000000000000000000000000101 ,
b00000000000000000000000000000101 2
b00000101 T
b00000000000000000000000000000101 -
#320
0!
0C
b00000000000000000000000000110100 d
#330
1!
1C
b00000000000000000000000000110100 g
b00000000000000000000000000111100 j
b01110 k
b01110 r
b01110 m
b01110 t
b01110 n
b01110 u
b00000000000000000000000000000100 &
b00000100 @
b00000000000000000000000000001000 '
b00000000000000000000000000001001 .
b00000000000000000000000000110100 f
b00000000010100010010010000100011 (
b010 P
b0100011 M
b0000010 N
b01000 E
b00010 G
b00000000000000000000000000001000 %
b00000000000000000000000000001000 +
b00000000000000000000000000001100 .
06
0F
17
1;
b00000000000000000000000000001000 ,
b00000000000000000000000000001000 2
b00001000 T
b00000000000000000000000000001000 -
#340
b00000000000000000000000000000011 ^
b00000000000000000000000000001011 `
b00000000000000000000000000001100 _
b00000000000000000000000000001111 `
0!
0C
b00000000000000000000000000001111 a
b00000000000000000000000000111000 d
#350
1!
1C
b00000000000000000000000000111000 g
b00000000000000000000000001000000 j
b01111 k
b01111 r
b01111 m
b01111 t
b01111 n
b01111 u
b00000000000000000000000000001000 &
b00001000 @
b00000000000000000000000000001100 '
b00000000000000000000000000010000 .
b00000000000000000000000000111000 f
b00000000100000010010001100000011 (
b0000011 M
b00110 E
b01000 H
b00000000000000000000000000001100 %
b01 1
16
1F
18
07
b00000000000000000000000000000010 K
b00000000000000000000000000000010 *
b00000000000000000000000000000010 S
b00000000000000000000000000000101 -
#360
0!
0C
b00000000000000000000000000111100 d
#370
1!
1C
b00000000000000000000000000111100 g
b00000000000000000000000001000100 j
b10000 k
b10000 r
b10000 m
b10000 t
b10000 n
b10000 u
b00000000000000000000000000001100 &
b00001100 @
b00000000000000000000000000010000 '
b00000000000000000000000000010100 .
b00000000000000000000000000111100 f
b00000000000101000000010000010011 (
b000 P
b0010011 M
b0000000 N
b01000 E
b01000 G
b00001 H
b00000000000000000000000000010000 %
b00000000000000000000000000000001 +
b00000000000000000000000000001101 .
b00 1
08
0;
b00000000000000000000000000000010 J
b00000000000000000000000000000010 )
b00000000000000000000000000000010 O
b00000000000000000000000000000000 K
b00000000000000000000000000000000 *
b00000000000000000000000000000000 S
b00000000000000000000000000000001 ,
b00000000000000000000000000001000 -
b00000000000000000000000000000011 2
b00000011 T
b00000000000000000000000000000011 -
#380
0!
0C
b00000000000000000000000001000000 d
b00000000000000000000000000000011 J
b00000000000000000000000000000011 )
b00000000000000000000000000000011 O
b00000000000000000000000000000100 2
b00000100 T
b00000000000000000000000000000100 -
#390
1!
1C
b00000000000000000000000001000000 g
b00000000000000000000000001001000 j
b10001 k
b10001 r
b10001 m
b10001 t
b10001 n
b10001 u
b00000000000000000000000000010000 &
b00010000 @
b00000000000000000000000000010100 '
b00000000000000000000000000010001 .
b00000000000000000000000001000000 f
b00000000011000101000001110110011 (
b0110011 M
b00111 E
b00101 G
b00110 H
b00000000000000000000000000010100 %
b00000000000000000000000000000000 +
b00000000000000000000000000010000 .
00
b00000000000000000000000000000101 J
b00000000000000000000000000000101 )
b00000000000000000000000000000101 O
b00000000000000000000000000000101 K
b00000000000000000000000000000101 *
b00000000000000000000000000000101 S
b00000000000000000000000000000101 ,
b00000000000000000000000000001010 2
b00001010 T
b00000000000000000000000000001010 -
#400
0!
0C
b00000000000000000000000001000100 d
#410
1!
1C
b00000000000000000000000001000100 g
b00000000000000000000000001001100 j
b10010 k
b10010 r
b10010 m
b10010 t
b10010 n
b10010 u
b00000000000000000000000000010100 &
b00010100 @
b00000000000000000000000000011000 '
b00000000000000000000000000010100 .
b00000000000000000000000001000100 f
b00000000100101000000000001100011 (
b1100011 M
b00000 E
b01000 G
b01001 H
b00000000000000000000000000011000 %
14
b01 /
06
0F
b00000000000000000000000000000011 J
b00000000000000000000000000000011 )
b00000000000000000000000000000011 O
b00000000000000000000000000000000 K
b00000000000000000000000000000000 *
b00000000000000000000000000000000 S
b00000000000000000000000000010100 %
04
b00000000000000000000000000000000 ,
b00 /
b00000000000000000000000000011000 %
#420
0!
0C
b00000000000000000000000001001000 d
#430
1!
1C
b00000000000000000000000001001000 g
b00000000000000000000000001010000 j
b10011 k
b10011 r
b10011 m
b10011 t
b10011 n
b10011 u
b00000000000000000000000000011000 &
b00011000 @
b00000000000000000000000000011100 '
b00000000000000000000000000011000 .
b00000000000000000000000001001000 f
b11111110100111111111000001101111 (
b111 P
b1111111 Q
b1101111 M
b0000111 N
b11111 G
b00000000000000000000000000011100 %
b00000000000000000000000000000000 2
1R
b00000000 T
b11111111111111111111111111101000 +
b00000000000000000000000000000000 .
b01 /
10
b10 1
16
1F
b00000000000000000000000000000000 J
b00000000000000000000000000000000 )
b00000000000000000000000000000000 O
b00000000000000000000000000000000 %
b00000000000000000000000000011100 -
b11111111111111111111111111101000 ,
#440
b00000000000000000000000000000100 ^
b00000000000000000000000000010000 `
b00000000000000000000000000010000 _
b00000000000000000000000000010100 `
0!
0C
b00000000000000000000000000010100 a
b00000000000000000000000001001100 d
#450
1!
1C
b00000000000000000000000001001100 g
b00000000000000000000000001010100 j
b10100 k
b10100 r
b10100 m
b10100 t
b10100 n
b10100 u
b00000000000000000000000000000000 &
b00000000 @
b00000000000000000000000000000100 '
b11111111111111111111111111101000 .
b00000000000000000000000001001100 f
b00000000010101010000001010010011 (
b000 P
b0000000 Q
b0010011 M
b0000000 N
b00101 E
b01010 G
b00101 H
b11111111111111111111111111101000 %
b00000000000000000000000000000100 -
b11111111111111111111111111101000 2
0R
b11101000 T
b00000000000000000000000000000101 +
b00000000000000000000000000000101 .
b00 /
b00 1
b00000000000000000000000000000101 K
b00000000000000000000000000000101 *
b00000000000000000000000000000101 S
b00000000000000000000000000000100 %
b11111111111111111111111111101000 -
b00000000000000000000000000000101 ,
b00000000000000000000000000000101 2
b00000101 T
b00000000000000000000000000000101 -
#460
0!
0C
b00000000000000000000000001010000 d
#470
1!
1C
b00000000000000000000000001010000 g
b00000000000000000000000001011000 j
b10101 k
b10101 r
b10101 m
b10101 t
b10101 n
b10101 u
b00000000000000000000000000000100 &
b00000100 @
b00000000000000000000000000001000 '
b00000000000000000000000000001001 .
b00000000000000000000000001010000 f
b00000000010100010010010000100011 (
b010 P
b0100011 M
b0000010 N
b01000 E
b00010 G
b00000000000000000000000000001000 %
b00000000000000000000000000001000 +
b00000000000000000000000000001100 .
06
0F
17
1;
b00000000000000000000000000001000 ,
b00000000000000000000000000001000 2
b00001000 T
b00000000000000000000000000001000 -
#480
0!
0C
b00000000000000000000000001010100 d
